{
  "openapi" : "3.0.1",
  "info" : {
    "title" : "Museum night app",
    "version" : "0.1.0"
  },
  "servers" : [ {
    "url" : "http://localhost:10010/api/v1"
  } ],
  "paths" : {
    "/exhibition" : {
      "get" : {
        "description" : "Returns paintings by artists",
        "operationId" : "exhibition",
        "parameters" : [ {
          "name" : "name",
          "in" : "query",
          "description" : "The name of the artists",
          "schema" : {
            "type" : "string"
          }
        } ],
        "responses" : {
          "200" : {
            "description" : "Success",
            "content" : {
              "application/json" : {
                "schema" : {
                  "$ref" : "#/components/schemas/Exhibition"
                }
              }
            }
          },
          "default" : {
            "description" : "Error",
            "content" : {
              "application/json" : {
                "schema" : {
                  "$ref" : "#/components/schemas/ErrorResponse"
                }
              }
            }
          }
        }
      },
      "x-swagger-router-controller" : "museum-controller"
    },
    "/comments" : {
      "get" : {
        "description" : "Returns list of comments",
        "operationId" : "comments",
        "parameters" : [ {
          "name" : "name",
          "in" : "query",
          "description" : "The name of the commentator",
          "schema" : {
            "type" : "string"
          }
        } ],
        "responses" : {
          "200" : {
            "description" : "Success",
            "content" : {
              "application/json" : {
                "schema" : {
                  "$ref" : "#/components/schemas/Comments"
                }
              }
            }
          },
          "default" : {
            "description" : "Error",
            "content" : {
              "application/json" : {
                "schema" : {
                  "$ref" : "#/components/schemas/ErrorResponse"
                }
              }
            }
          }
        }
      },
      "x-swagger-router-controller" : "museum-controller"
    },
    "/timetable" : {
      "get" : {
        "description" : "Returns timetable",
        "operationId" : "timetable",
        "parameters" : [ {
          "name" : "name",
          "in" : "query",
          "description" : "The name of the commentator",
          "schema" : {
            "type" : "string"
          }
        } ],
        "responses" : {
          "200" : {
            "description" : "Success",
            "content" : {
              "application/json" : {
                "schema" : {
                  "$ref" : "#/components/schemas/Timetable"
                }
              }
            }
          },
          "default" : {
            "description" : "Error",
            "content" : {
              "application/json" : {
                "schema" : {
                  "$ref" : "#/components/schemas/ErrorResponse"
                }
              }
            }
          }
        }
      },
      "x-swagger-router-controller" : "museum-controller"
    },
    "/swagger" : {
      "x-swagger-pipe" : "swagger_raw"
    }
  },
  "components" : {
    "schemas" : {
      "Exhibition" : {
        "type" : "array",
        "items" : {
          "$ref" : "#/components/schemas/Artists"
        }
      },
      "Artists" : {
        "type" : "object",
        "properties" : {
          "id" : {
            "type" : "number"
          },
          "name" : {
            "type" : "string"
          },
          "lastName" : {
            "type" : "string"
          },
          "description" : {
            "type" : "string"
          },
          "img1" : {
            "type" : "string"
          },
          "img2" : {
            "type" : "string"
          },
          "img3" : {
            "type" : "string"
          },
          "img4" : {
            "type" : "string"
          }
        }
      },
      "Comments" : {
        "type" : "array",
        "items" : {
          "$ref" : "#/components/schemas/Comment"
        }
      },
      "Comment" : {
        "type" : "object",
        "properties" : {
          "id" : {
            "type" : "number"
          },
          "name" : {
            "type" : "string"
          },
          "comment" : {
            "type" : "string"
          }
        }
      },
      "Timetable" : {
        "type" : "array",
        "items" : {
          "$ref" : "#/components/schemas/Event"
        }
      },
      "Event" : {
        "type" : "object",
        "properties" : {
          "id" : {
            "type" : "number"
          },
          "number" : {
            "type" : "number"
          },
          "place" : {
            "type" : "string"
          },
          "adjective" : {
            "type" : "string"
          },
          "name" : {
            "type" : "string"
          },
          "description" : {
            "type" : "string"
          }
        }
      },
      "ErrorResponse" : {
        "required" : [ "message" ],
        "type" : "object",
        "properties" : {
          "message" : {
            "type" : "string"
          }
        }
      }
    }
  }
}